…
    ## Warning in FUN(X[[i]], ...): unable to translate '<U+00D8>' to native encoding

    ## Warning in FUN(X[[i]], ...): unable to translate '<U+00F8>' to native encoding

    ## Warning in FUN(X[[i]], ...): unable to translate '<U+00C5>' to native encoding

    ## Warning in FUN(X[[i]], ...): unable to translate '<U+00E5>' to native encoding

## Take a look at the data

``` r
litters_df
```

    ## # A tibble: 49 x 8
    ##    group litter_number   gd0_weight gd18_weight gd_of_birth pups_born_alive
    ##    <chr> <chr>                <dbl>       <dbl>       <dbl>           <dbl>
    ##  1 Con7  #85                   19.7        34.7          20               3
    ##  2 Con7  #1/2/95/2             27          42            19               8
    ##  3 Con7  #5/5/3/83/3-3         26          41.4          19               6
    ##  4 Con7  #5/4/2/95/2           28.5        44.1          19               5
    ##  5 Con7  #4/2/95/3-3           NA          NA            20               6
    ##  6 Con7  #2/2/95/3-2           NA          NA            20               6
    ##  7 Con7  #1/5/3/83/3-3/2       NA          NA            20               9
    ##  8 Con8  #3/83/3-3             NA          NA            20               9
    ##  9 Con8  #2/95/3               NA          NA            20               8
    ## 10 Con8  #3/5/2/2/95           28.5        NA            20               8
    ## # ... with 39 more rows, and 2 more variables: pups_dead_birth <dbl>,
    ## #   pups_survive <dbl>
